simulation/qsim/aes.msim.vcd
$comment
	File created using the following command:
		vcd file aes.msim.vcd -direction
$end
$date
	Wed Sep 18 13:45:44 2019
$end
$version
	ModelSim Version 10.1d
$end
$timescale
	1ps
$end
$scope module aes_vlg_vec_tst $end
$var reg 64 ! chave1 [63:0] $end
$var reg 64 " chave2 [63:0] $end
$var reg 64 # msg [63:0] $end
$var wire 1 $ mensagem_criptografada [17] $end
$var wire 1 % mensagem_criptografada [16] $end
$var wire 1 & mensagem_criptografada [15] $end
$var wire 1 ' mensagem_criptografada [14] $end
$var wire 1 ( mensagem_criptografada [13] $end
$var wire 1 ) mensagem_criptografada [12] $end
$var wire 1 * mensagem_criptografada [11] $end
$var wire 1 + mensagem_criptografada [10] $end
$var wire 1 , mensagem_criptografada [9] $end
$var wire 1 - mensagem_criptografada [8] $end
$var wire 1 . mensagem_criptografada [7] $end
$var wire 1 / mensagem_criptografada [6] $end
$var wire 1 0 mensagem_criptografada [5] $end
$var wire 1 1 mensagem_criptografada [4] $end
$var wire 1 2 mensagem_criptografada [3] $end
$var wire 1 3 mensagem_criptografada [2] $end
$var wire 1 4 mensagem_criptografada [1] $end
$var wire 1 5 mensagem_criptografada [0] $end
$var wire 1 6 sampler $end
$scope module i1 $end
$var wire 1 7 gnd $end
$var wire 1 8 vcc $end
$var wire 1 9 unknown $end
$var tri1 1 : devclrn $end
$var tri1 1 ; devpor $end
$var tri1 1 < devoe $end
$var wire 1 = msg[0]~input_o $end
$var wire 1 > msg[1]~input_o $end
$var wire 1 ? msg[2]~input_o $end
$var wire 1 @ msg[3]~input_o $end
$var wire 1 A msg[4]~input_o $end
$var wire 1 B msg[5]~input_o $end
$var wire 1 C msg[6]~input_o $end
$var wire 1 D msg[7]~input_o $end
$var wire 1 E msg[8]~input_o $end
$var wire 1 F msg[9]~input_o $end
$var wire 1 G msg[10]~input_o $end
$var wire 1 H msg[11]~input_o $end
$var wire 1 I msg[12]~input_o $end
$var wire 1 J msg[13]~input_o $end
$var wire 1 K msg[14]~input_o $end
$var wire 1 L msg[15]~input_o $end
$var wire 1 M msg[16]~input_o $end
$var wire 1 N msg[17]~input_o $end
$var wire 1 O msg[18]~input_o $end
$var wire 1 P msg[19]~input_o $end
$var wire 1 Q msg[20]~input_o $end
$var wire 1 R msg[21]~input_o $end
$var wire 1 S msg[22]~input_o $end
$var wire 1 T msg[23]~input_o $end
$var wire 1 U msg[24]~input_o $end
$var wire 1 V msg[25]~input_o $end
$var wire 1 W msg[26]~input_o $end
$var wire 1 X msg[27]~input_o $end
$var wire 1 Y msg[28]~input_o $end
$var wire 1 Z msg[29]~input_o $end
$var wire 1 [ msg[30]~input_o $end
$var wire 1 \ msg[31]~input_o $end
$var wire 1 ] msg[32]~input_o $end
$var wire 1 ^ msg[33]~input_o $end
$var wire 1 _ msg[34]~input_o $end
$var wire 1 ` msg[35]~input_o $end
$var wire 1 a msg[36]~input_o $end
$var wire 1 b msg[37]~input_o $end
$var wire 1 c msg[38]~input_o $end
$var wire 1 d msg[39]~input_o $end
$var wire 1 e msg[40]~input_o $end
$var wire 1 f msg[41]~input_o $end
$var wire 1 g msg[42]~input_o $end
$var wire 1 h msg[43]~input_o $end
$var wire 1 i msg[44]~input_o $end
$var wire 1 j msg[45]~input_o $end
$var wire 1 k msg[46]~input_o $end
$var wire 1 l msg[47]~input_o $end
$var wire 1 m msg[48]~input_o $end
$var wire 1 n msg[49]~input_o $end
$var wire 1 o msg[50]~input_o $end
$var wire 1 p msg[51]~input_o $end
$var wire 1 q msg[52]~input_o $end
$var wire 1 r msg[53]~input_o $end
$var wire 1 s msg[54]~input_o $end
$var wire 1 t msg[55]~input_o $end
$var wire 1 u msg[56]~input_o $end
$var wire 1 v msg[57]~input_o $end
$var wire 1 w msg[58]~input_o $end
$var wire 1 x msg[59]~input_o $end
$var wire 1 y msg[60]~input_o $end
$var wire 1 z msg[61]~input_o $end
$var wire 1 { msg[62]~input_o $end
$var wire 1 | msg[63]~input_o $end
$var wire 1 } chave1[0]~input_o $end
$var wire 1 ~ chave1[1]~input_o $end
$var wire 1 !! chave1[2]~input_o $end
$var wire 1 "! chave1[3]~input_o $end
$var wire 1 #! chave1[4]~input_o $end
$var wire 1 $! chave1[5]~input_o $end
$var wire 1 %! chave1[6]~input_o $end
$var wire 1 &! chave1[7]~input_o $end
$var wire 1 '! chave1[8]~input_o $end
$var wire 1 (! chave1[9]~input_o $end
$var wire 1 )! chave1[10]~input_o $end
$var wire 1 *! chave1[11]~input_o $end
$var wire 1 +! chave1[12]~input_o $end
$var wire 1 ,! chave1[13]~input_o $end
$var wire 1 -! chave1[14]~input_o $end
$var wire 1 .! chave1[15]~input_o $end
$var wire 1 /! chave1[16]~input_o $end
$var wire 1 0! chave1[17]~input_o $end
$var wire 1 1! chave1[18]~input_o $end
$var wire 1 2! chave1[19]~input_o $end
$var wire 1 3! chave1[20]~input_o $end
$var wire 1 4! chave1[21]~input_o $end
$var wire 1 5! chave1[22]~input_o $end
$var wire 1 6! chave1[23]~input_o $end
$var wire 1 7! chave1[24]~input_o $end
$var wire 1 8! chave1[25]~input_o $end
$var wire 1 9! chave1[26]~input_o $end
$var wire 1 :! chave1[27]~input_o $end
$var wire 1 ;! chave1[28]~input_o $end
$var wire 1 <! chave1[29]~input_o $end
$var wire 1 =! chave1[30]~input_o $end
$var wire 1 >! chave1[31]~input_o $end
$var wire 1 ?! chave1[32]~input_o $end
$var wire 1 @! chave1[33]~input_o $end
$var wire 1 A! chave1[34]~input_o $end
$var wire 1 B! chave1[35]~input_o $end
$var wire 1 C! chave1[36]~input_o $end
$var wire 1 D! chave1[37]~input_o $end
$var wire 1 E! chave1[38]~input_o $end
$var wire 1 F! chave1[39]~input_o $end
$var wire 1 G! chave1[40]~input_o $end
$var wire 1 H! chave1[41]~input_o $end
$var wire 1 I! chave1[42]~input_o $end
$var wire 1 J! chave1[43]~input_o $end
$var wire 1 K! chave1[44]~input_o $end
$var wire 1 L! chave1[45]~input_o $end
$var wire 1 M! chave1[46]~input_o $end
$var wire 1 N! chave1[47]~input_o $end
$var wire 1 O! chave1[48]~input_o $end
$var wire 1 P! chave1[49]~input_o $end
$var wire 1 Q! chave1[50]~input_o $end
$var wire 1 R! chave1[51]~input_o $end
$var wire 1 S! chave1[52]~input_o $end
$var wire 1 T! chave1[53]~input_o $end
$var wire 1 U! chave1[54]~input_o $end
$var wire 1 V! chave1[55]~input_o $end
$var wire 1 W! chave1[56]~input_o $end
$var wire 1 X! chave1[57]~input_o $end
$var wire 1 Y! chave1[58]~input_o $end
$var wire 1 Z! chave1[59]~input_o $end
$var wire 1 [! chave1[60]~input_o $end
$var wire 1 \! chave1[61]~input_o $end
$var wire 1 ]! chave1[62]~input_o $end
$var wire 1 ^! chave1[63]~input_o $end
$var wire 1 _! chave2[0]~input_o $end
$var wire 1 `! chave2[1]~input_o $end
$var wire 1 a! chave2[2]~input_o $end
$var wire 1 b! chave2[3]~input_o $end
$var wire 1 c! chave2[4]~input_o $end
$var wire 1 d! chave2[5]~input_o $end
$var wire 1 e! chave2[6]~input_o $end
$var wire 1 f! chave2[7]~input_o $end
$var wire 1 g! chave2[8]~input_o $end
$var wire 1 h! chave2[9]~input_o $end
$var wire 1 i! chave2[10]~input_o $end
$var wire 1 j! chave2[11]~input_o $end
$var wire 1 k! chave2[12]~input_o $end
$var wire 1 l! chave2[13]~input_o $end
$var wire 1 m! chave2[14]~input_o $end
$var wire 1 n! chave2[15]~input_o $end
$var wire 1 o! chave2[16]~input_o $end
$var wire 1 p! chave2[17]~input_o $end
$var wire 1 q! chave2[18]~input_o $end
$var wire 1 r! chave2[19]~input_o $end
$var wire 1 s! chave2[20]~input_o $end
$var wire 1 t! chave2[21]~input_o $end
$var wire 1 u! chave2[22]~input_o $end
$var wire 1 v! chave2[23]~input_o $end
$var wire 1 w! chave2[24]~input_o $end
$var wire 1 x! chave2[25]~input_o $end
$var wire 1 y! chave2[26]~input_o $end
$var wire 1 z! chave2[27]~input_o $end
$var wire 1 {! chave2[28]~input_o $end
$var wire 1 |! chave2[29]~input_o $end
$var wire 1 }! chave2[30]~input_o $end
$var wire 1 ~! chave2[31]~input_o $end
$var wire 1 !" chave2[32]~input_o $end
$var wire 1 "" chave2[33]~input_o $end
$var wire 1 #" chave2[34]~input_o $end
$var wire 1 $" chave2[35]~input_o $end
$var wire 1 %" chave2[36]~input_o $end
$var wire 1 &" chave2[37]~input_o $end
$var wire 1 '" chave2[38]~input_o $end
$var wire 1 (" chave2[39]~input_o $end
$var wire 1 )" chave2[40]~input_o $end
$var wire 1 *" chave2[41]~input_o $end
$var wire 1 +" chave2[42]~input_o $end
$var wire 1 ," chave2[43]~input_o $end
$var wire 1 -" chave2[44]~input_o $end
$var wire 1 ." chave2[45]~input_o $end
$var wire 1 /" chave2[46]~input_o $end
$var wire 1 0" chave2[47]~input_o $end
$var wire 1 1" chave2[48]~input_o $end
$var wire 1 2" chave2[49]~input_o $end
$var wire 1 3" chave2[50]~input_o $end
$var wire 1 4" chave2[51]~input_o $end
$var wire 1 5" chave2[52]~input_o $end
$var wire 1 6" chave2[53]~input_o $end
$var wire 1 7" chave2[54]~input_o $end
$var wire 1 8" chave2[55]~input_o $end
$var wire 1 9" chave2[56]~input_o $end
$var wire 1 :" chave2[57]~input_o $end
$var wire 1 ;" chave2[58]~input_o $end
$var wire 1 <" chave2[59]~input_o $end
$var wire 1 =" chave2[60]~input_o $end
$var wire 1 >" chave2[61]~input_o $end
$var wire 1 ?" chave2[62]~input_o $end
$var wire 1 @" chave2[63]~input_o $end
$var wire 1 A" mensagem_criptografada[0]~output_o $end
$var wire 1 B" mensagem_criptografada[1]~output_o $end
$var wire 1 C" mensagem_criptografada[2]~output_o $end
$var wire 1 D" mensagem_criptografada[3]~output_o $end
$var wire 1 E" mensagem_criptografada[4]~output_o $end
$var wire 1 F" mensagem_criptografada[5]~output_o $end
$var wire 1 G" mensagem_criptografada[6]~output_o $end
$var wire 1 H" mensagem_criptografada[7]~output_o $end
$var wire 1 I" mensagem_criptografada[8]~output_o $end
$var wire 1 J" mensagem_criptografada[9]~output_o $end
$var wire 1 K" mensagem_criptografada[10]~output_o $end
$var wire 1 L" mensagem_criptografada[11]~output_o $end
$var wire 1 M" mensagem_criptografada[12]~output_o $end
$var wire 1 N" mensagem_criptografada[13]~output_o $end
$var wire 1 O" mensagem_criptografada[14]~output_o $end
$var wire 1 P" mensagem_criptografada[15]~output_o $end
$var wire 1 Q" mensagem_criptografada[16]~output_o $end
$var wire 1 R" mensagem_criptografada[17]~output_o $end
$upscope $end
$upscope $end
$enddefinitions $end
#0
$dumpvars
b1000000100000001100000100000001010000011000000111 !
b100000001001000000000000000100000010000000110000010000000101 "
b1000000100000001100000100000001010000011000000111 #
05
04
03
02
01
00
0/
0.
0-
0,
0+
0*
0)
0(
0'
0&
0%
0$
x6
07
18
x9
1:
1;
1<
1=
1>
1?
0@
0A
0B
0C
0D
0E
1F
1G
0H
0I
0J
0K
0L
1M
0N
1O
0P
0Q
0R
0S
0T
0U
0V
1W
0X
0Y
0Z
0[
0\
1]
1^
0_
0`
0a
0b
0c
0d
0e
1f
0g
0h
0i
0j
0k
0l
1m
0n
0o
0p
0q
0r
0s
0t
0u
0v
0w
0x
0y
0z
0{
0|
1}
1~
1!!
0"!
0#!
0$!
0%!
0&!
0'!
1(!
1)!
0*!
0+!
0,!
0-!
0.!
1/!
00!
11!
02!
03!
04!
05!
06!
07!
08!
19!
0:!
0;!
0<!
0=!
0>!
1?!
1@!
0A!
0B!
0C!
0D!
0E!
0F!
0G!
1H!
0I!
0J!
0K!
0L!
0M!
0N!
1O!
0P!
0Q!
0R!
0S!
0T!
0U!
0V!
0W!
0X!
0Y!
0Z!
0[!
0\!
0]!
0^!
1_!
0`!
1a!
0b!
0c!
0d!
0e!
0f!
0g!
0h!
1i!
0j!
0k!
0l!
0m!
0n!
1o!
1p!
0q!
0r!
0s!
0t!
0u!
0v!
0w!
1x!
0y!
0z!
0{!
0|!
0}!
0~!
1!"
0""
0#"
0$"
0%"
0&"
0'"
0("
0)"
0*"
0+"
0,"
0-"
0."
0/"
00"
11"
02"
03"
14"
05"
06"
07"
08"
09"
0:"
0;"
1<"
0="
0>"
0?"
0@"
0A"
0B"
0C"
0D"
0E"
0F"
0G"
0H"
0I"
0J"
0K"
0L"
0M"
0N"
0O"
0P"
0Q"
0R"
$end
#10000
b1000000100000001100000100000001010000011000100111 !
b1000000100000001100000100000001010000011000110111 !
b1000000100000001100000100000001010000011000111111 !
b1000000100000001100000100000001010000011000111011 !
b1000000100000001100000100000001010000011000111001 !
b1000000100000001100000100000001010000011000111000 !
b100000001001000000000000000100000010000000110000010000100101 "
b100000001001000000000000000100000010000000110000010000110101 "
b100000001001000000000000000100000010000000110000010000110111 "
b100000001001000000000000000100000010000000110000010000110110 "
b1000000100000001100000100000001010000011000100111 #
b1000000100000001100000100000001010000011000110111 #
b1000000100000001100000100000001010000011000111111 #
b1000000100000001100000100000001010000011000111011 #
b1000000100000001100000100000001010000011000111001 #
b1000000100000001100000100000001010000011000111000 #
0=
0>
0?
1@
1A
1B
0_!
1`!
1c!
1d!
0}
0~
0!!
1"!
1#!
1$!
06
#20000
b1000000100000001100000100000001010000011001111000 !
b100000001001000000000000000100000010000000110000010001110110 "
b1000000100000001100000100000001010000011001111000 #
b1000000100000001100000100000001010000011001101000 !
b1000000100000001100000100000001010000011001101001 !
b100000001001000000000000000100000010000000110000010001100110 "
b100000001001000000000000000100000010000000110000010001100111 "
b1000000100000001100000100000001010000011001101000 #
b1000000100000001100000100000001010000011001101001 #
1=
0A
1C
1_!
0c!
1e!
1}
0#!
1%!
16
#30000
b1000000100000001100000100000001010000011011101001 !
b100000001001000000000000000100000010000000110000010011100111 "
b100000001001000000000000000100000010000000110000010011101111 "
b100000001001000000000000000100000010000000110000010011101011 "
b1000000100000001100000100000001010000011011101001 #
b1000000100000001100000100000001010000011011001001 !
b1000000100000001100000100000001010000011011001011 !
b100000001001000000000000000100000010000000110000010011001011 "
b100000001001000000000000000100000010000000110000010011001001 "
b1000000100000001100000100000001010000011011001001 #
b1000000100000001100000100000001010000011011001011 #
b1000000100000001100000100000001010000011010001011 !
b100000001001000000000000000100000010000000110000010010001001 "
b1000000100000001100000100000001010000011010001011 #
b1000000100000001100000100000001010000011010011011 !
b1000000100000001100000100000001010000011010011010 !
b100000001001000000000000000100000010000000110000010010011001 "
b100000001001000000000000000100000010000000110000010010011000 "
b1000000100000001100000100000001010000011010011011 #
b1000000100000001100000100000001010000011010011010 #
0=
1>
1A
0B
0C
1D
0_!
0`!
0a!
1b!
1c!
0d!
0e!
1f!
0}
1~
1#!
0$!
0%!
1&!
06
#40000
b1000000100000001100000100000001010000011011011010 !
b100000001001000000000000000100000010000000110000010011011000 "
b1000000100000001100000100000001010000011011011010 #
b1000000100000001100000100000001010000011011001010 !
b1000000100000001100000100000001010000011011001011 !
b100000001001000000000000000100000010000000110000010011001000 "
b100000001001000000000000000100000010000000110000010011001001 "
b1000000100000001100000100000001010000011011001010 #
b1000000100000001100000100000001010000011011001011 #
1=
0A
1C
1_!
0c!
1e!
1}
0#!
1%!
16
#50000
b1000000100000001100000100000001010000011011001111 !
b1000000100000001100000100000001010000011011001111 #
b1000000100000001100000100000001010000011011101111 !
b1000000100000001100000100000001010000011011101101 !
b100000001001000000000000000100000010000000110000010011101001 "
b100000001001000000000000000100000010000000110000010011101011 "
b1000000100000001100000100000001010000011011101111 #
b1000000100000001100000100000001010000011011101101 #
b1000000100000001100000100000001010000011011111101 !
b1000000100000001100000100000001010000011011111100 !
b100000001001000000000000000100000010000000110000010011111011 "
b100000001001000000000000000100000010000000110000010011111010 "
b1000000100000001100000100000001010000011011111101 #
b1000000100000001100000100000001010000011011111100 #
0_!
1`!
1c!
1d!
0=
0>
1?
1A
1B
0}
0~
1!!
1#!
1$!
06
#60000
b1000000100000001100000100000001010000011111111100 !
b100000001001000000000000000100000010000000110000010111111010 "
b1000000100000001100000100000001010000011111111100 #
b1000000100000001100000100000001010000011101111100 !
b100000001001000000000000000100000010000000110000010101111010 "
b1000000100000001100000100000001010000011101111100 #
b1000000100000001100000100000001010000011100111100 !
b100000001001000000000000000100000010000000110000010100111010 "
b1000000100000001100000100000001010000011100111100 #
b1000000100000001100000100000001010000011100101100 !
b1000000100000001100000100000001010000011100101101 !
b100000001001000000000000000100000010000000110000010100101010 "
b100000001001000000000000000100000010000000110000010100101011 "
b1000000100000001100000100000001010000011100101100 #
b1000000100000001100000100000001010000011100101101 #
1=
0A
0C
0D
1E
1_!
0c!
0e!
0f!
1g!
1}
0#!
0%!
0&!
1'!
16
#70000
b100000001001000000000000000100000010000000110000010100101111 "
b1000000100000001100000100000001010000011100001101 !
b1000000100000001100000100000001010000011100001111 !
b100000001001000000000000000100000010000000110000010100001111 "
b100000001001000000000000000100000010000000110000010100001101 "
b1000000100000001100000100000001010000011100001101 #
b1000000100000001100000100000001010000011100001111 #
b1000000100000001100000100000001010000011101001111 !
b100000001001000000000000000100000010000000110000010101001101 "
b1000000100000001100000100000001010000011101001111 #
b1000000100000001100000100000001010000011101011111 !
b1000000100000001100000100000001010000011101011110 !
b100000001001000000000000000100000010000000110000010101011101 "
b100000001001000000000000000100000010000000110000010101011100 "
b1000000100000001100000100000001010000011101011111 #
b1000000100000001100000100000001010000011101011110 #
0=
1>
1A
0B
1C
0}
1~
1#!
0$!
1%!
0_!
0`!
1a!
1c!
0d!
1e!
06
#80000
b1000000100000001100000100000001010000011111011110 !
b100000001001000000000000000100000010000000110000010111011100 "
b1000000100000001100000100000001010000011111011110 #
b1000000100000001100000100000001010000011110011110 !
b100000001001000000000000000100000010000000110000010110011100 "
b1000000100000001100000100000001010000011110011110 #
b1000000100000001100000100000001010000011110001110 !
b1000000100000001100000100000001010000011110001111 !
b100000001001000000000000000100000010000000110000010110001100 "
b100000001001000000000000000100000010000000110000010110001101 "
b1000000100000001100000100000001010000011110001110 #
b1000000100000001100000100000001010000011110001111 #
1=
0A
0C
1D
1_!
0c!
0e!
1f!
1}
0#!
0%!
1&!
16
#90000
b1000000100000001100000100000001010000011110000111 !
b1000000100000001100000100000001010000011110000111 #
b1000000100000001100000100000001010000011110000011 !
b1000000100000001100000100000001010000011110000011 #
b1000000100000001100000100000001010000011110000001 !
b100000001001000000000000000100000010000000110000010110101101 "
b100000001001000000000000000100000010000000110000010110101111 "
b1000000100000001100000100000001010000011110000001 #
b1000000100000001100000100000001010000011111000001 !
b1000000100000001100000100000001010000011111000001 #
b1000000100000001100000100000001010000011111000000 !
b100000001001000000000000000100000010000000110000010110111111 "
b100000001001000000000000000100000010000000110000010110111110 "
b1000000100000001100000100000001010000011111000000 #
0_!
1`!
1c!
1d!
0=
0>
0?
0@
1C
0}
0~
0!!
0"!
1%!
06
#100000
b1000000100000001100000100000001010000011111100000 !
b1000000100000001100000100000001010000011111100000 #
b100000001001000000000000000100000010000000110000010111111110 "
b1000000100000001100000100000001010000011111110000 !
b1000000100000001100000100000001010000011111110000 #
b1000000100000001100000100000001010000011111110001 !
b100000001001000000000000000100000010000000110000010111101110 "
b100000001001000000000000000100000010000000110000010111101111 "
b1000000100000001100000100000001010000011111110001 #
1_!
0c!
1e!
1=
1A
1B
1}
1#!
1$!
16
#110000
b1000000100000001100000100000001010000111111110001 !
b1000000100000001100000100000001010000101111110001 !
b1000000100000001100000100000001010000100111110001 !
b100000001001000000000000000100000010000000110000011111101111 "
b1000000100000001100000100000001010000111111110001 #
b1000000100000001100000100000001010000101111110001 #
b1000000100000001100000100000001010000100111110001 #
b100000001001000000000000000100000010000000110000011111100111 "
b1000000100000001100000100000001010000100011110001 !
b100000001001000000000000000100000010000000110000011011100111 "
b1000000100000001100000100000001010000100011110001 #
b100000001001000000000000000100000010000000110000011011100011 "
b1000000100000001100000100000001010000100001110001 !
b100000001001000000000000000100000010000000110000011001100011 "
b1000000100000001100000100000001010000100001110001 #
b1000000100000001100000100000001010000100001110011 !
b100000001001000000000000000100000010000000110000011001100001 "
b1000000100000001100000100000001010000100001110011 #
b1000000100000001100000100000001010000100000110011 !
b1000000100000001100000100000001010000100000110011 #
b100000001001000000000000000100000010000000110000011000100001 "
b1000000100000001100000100000001010000100000100011 !
b1000000100000001100000100000001010000100000100011 #
b1000000100000001100000100000001010000100000100010 !
b100000001001000000000000000100000010000000110000011000100000 "
b1000000100000001100000100000001010000100000100010 #
0=
1>
0A
0C
0D
0E
0F
0G
1H
0_!
0`!
0a!
0b!
0e!
0f!
0g!
1h!
0}
1~
0#!
0%!
0&!
0'!
0(!
0)!
1*!
06
#120000
b100000001001000000000000000100000010000000110000011000000000 "
b1000000100000001100000100000001010000100000000010 !
b1000000100000001100000100000001010000100000000010 #
b100000001001000000000000000100000010000000110000011000010000 "
b1000000100000001100000100000001010000100001000010 !
b1000000100000001100000100000001010000100001000010 #
b100000001001000000000000000100000010000000110000011001010000 "
b1000000100000001100000100000001010000100001010010 !
b1000000100000001100000100000001010000100001010010 #
b1000000100000001100000100000001010000100001010011 !
b100000001001000000000000000100000010000000110000011001010001 "
b1000000100000001100000100000001010000100001010011 #
1=
1A
0B
1C
1}
1#!
0$!
1%!
1_!
1c!
0d!
1e!
16
#130000
b1000000100000001100000100000001010000100001010111 !
b1000000100000001100000100000001010000100001010111 #
b1000000100000001100000100000001010000100011010111 !
b100000001001000000000000000100000010000000110000011011010001 "
b1000000100000001100000100000001010000100011010111 #
b1000000100000001100000100000001010000100011010101 !
b100000001001000000000000000100000010000000110000011011010011 "
b1000000100000001100000100000001010000100011010101 #
b100000001001000000000000000100000010000000110000011011000011 "
b1000000100000001100000100000001010000100010010101 !
b1000000100000001100000100000001010000100010010101 #
b100000001001000000000000000100000010000000110000011010000011 "
b1000000100000001100000100000001010000100010000101 !
b1000000100000001100000100000001010000100010000101 #
b1000000100000001100000100000001010000100010000100 !
b100000001001000000000000000100000010000000110000011010000010 "
b1000000100000001100000100000001010000100010000100 #
0_!
1`!
0c!
0e!
1f!
0=
0>
1?
0A
0C
1D
0}
0~
1!!
0#!
0%!
1&!
06
#140000
b100000001001000000000000000100000010000000110000011010100010 "
b1000000100000001100000100000001010000100010100100 !
b1000000100000001100000100000001010000100010100100 #
b100000001001000000000000000100000010000000110000011010110010 "
b1000000100000001100000100000001010000100010110100 !
b1000000100000001100000100000001010000100010110100 #
b1000000100000001100000100000001010000100010110101 !
b100000001001000000000000000100000010000000110000011010110011 "
b1000000100000001100000100000001010000100010110101 #
1=
1A
1B
1}
1#!
1$!
1_!
1c!
1d!
16
#150000
b100000001001000000000000000100000010000000110000011010110111 "
b1000000100000001100000100000001010000100010110111 !
b100000001001000000000000000100000010000000110000011010110101 "
b1000000100000001100000100000001010000100010110111 #
b1000000100000001100000100000001010000100011110111 !
b1000000100000001100000100000001010000100011110111 #
b100000001001000000000000000100000010000000110000011011110101 "
b100000001001000000000000000100000010000000110000011011100101 "
b1000000100000001100000100000001010000100011100111 !
b1000000100000001100000100000001010000100011100111 #
b1000000100000001100000100000001010000100011100110 !
b100000001001000000000000000100000010000000110000011011100100 "
b1000000100000001100000100000001010000100011100110 #
0=
1>
0A
1C
0}
1~
0#!
1%!
0_!
0`!
1a!
0c!
1e!
06
#160000
b1000000100000001100000100000001010000100111100110 !
b100000001001000000000000000100000010000000110000011111100100 "
b1000000100000001100000100000001010000100111100110 #
b1000000100000001100000100000001010000100101100110 !
b100000001001000000000000000100000010000000110000011101100100 "
b1000000100000001100000100000001010000100101100110 #
b100000001001000000000000000100000010000000110000011101000100 "
b1000000100000001100000100000001010000100101000110 !
b1000000100000001100000100000001010000100101000110 #
b1000000100000001100000100000001010000100100000110 !
b1000000100000001100000100000001010000100100000110 #
b100000001001000000000000000100000010000000110000011100000100 "
b100000001001000000000000000100000010000000110000011100010100 "
b1000000100000001100000100000001010000100100010110 !
b1000000100000001100000100000001010000100100010110 #
b1000000100000001100000100000001010000100100010111 !
b100000001001000000000000000100000010000000110000011100010101 "
b1000000100000001100000100000001010000100100010111 #
1=
1A
0B
0C
0D
1E
1_!
1c!
0d!
0e!
0f!
1g!
1}
1#!
0$!
0%!
0&!
1'!
16
#170000
b1000000100000001100000100000001010000100100011111 !
b1000000100000001100000100000001010000100100011111 #
b1000000100000001100000100000001010000100100011011 !
b1000000100000001100000100000001010000100100011011 #
b1000000100000001100000100000001010000100100011001 !
b100000001001000000000000000100000010000000110000011100010111 "
b1000000100000001100000100000001010000100100011001 #
b1000000100000001100000100000001010000100101011001 !
b1000000100000001100000100000001010000100101011001 #
b100000001001000000000000000100000010000000110000011101010111 "
b100000001001000000000000000100000010000000110000011101000111 "
b1000000100000001100000100000001010000100101001001 !
b1000000100000001100000100000001010000100101001001 #
b1000000100000001100000100000001010000100101001000 !
b100000001001000000000000000100000010000000110000011101000110 "
b1000000100000001100000100000001010000100101001000 #
0_!
1`!
0c!
1e!
0=
0>
0?
1@
0A
1C
0}
0~
0!!
1"!
0#!
1%!
06
#180000
b100000001001000000000000000100000010000000110000011101100110 "
b1000000100000001100000100000001010000100101101000 !
b1000000100000001100000100000001010000100101101000 #
b100000001001000000000000000100000010000000110000011101110110 "
b1000000100000001100000100000001010000100101111000 !
b1000000100000001100000100000001010000100101111000 #
b1000000100000001100000100000001010000100101111001 !
b100000001001000000000000000100000010000000110000011101110111 "
b1000000100000001100000100000001010000100101111001 #
1=
1A
1B
1}
1#!
1$!
1_!
1c!
1d!
16
#190000
b100000001001000000000000000100000010000000110000011101111111 "
b100000001001000000000000000100000010000000110000011101111011 "
b1000000100000001100000100000001010000100111111001 !
b100000001001000000000000000100000010000000110000011111111011 "
b1000000100000001100000100000001010000100111111001 #
b1000000100000001100000100000001010000100111111011 !
b100000001001000000000000000100000010000000110000011111111001 "
b1000000100000001100000100000001010000100111111011 #
b1000000100000001100000100000001010000100110111011 !
b1000000100000001100000100000001010000100110111011 #
b100000001001000000000000000100000010000000110000011110111001 "
b100000001001000000000000000100000010000000110000011110101001 "
b1000000100000001100000100000001010000100110101011 !
b1000000100000001100000100000001010000100110101011 #
b1000000100000001100000100000001010000100110101010 !
b100000001001000000000000000100000010000000110000011110101000 "
b1000000100000001100000100000001010000100110101010 #
0=
1>
0A
0C
1D
0}
1~
0#!
0%!
1&!
0_!
0`!
0a!
1b!
0c!
0e!
1f!
06
#200000
b100000001001000000000000000100000010000000110000011110001000 "
b1000000100000001100000100000001010000100110001010 !
b1000000100000001100000100000001010000100110001010 #
b1000000100000001100000100000001010000100111001010 !
b1000000100000001100000100000001010000100111001010 #
b100000001001000000000000000100000010000000110000011111001000 "
b100000001001000000000000000100000010000000110000011111011000 "
b1000000100000001100000100000001010000100111011010 !
b1000000100000001100000100000001010000100111011010 #
b1000000100000001100000100000001010000100111011011 !
b100000001001000000000000000100000010000000110000011111011001 "
b1000000100000001100000100000001010000100111011011 #
1=
1A
0B
1C
1}
1#!
0$!
1%!
1_!
1c!
0d!
1e!
16
#210000
b100000001001000000000000000100000010000000110000111111011001 "
b100000001001000000000000000100000010000000110000101111011001 "
b1000000100000001100000100000001010000101111011011 !
b100000001001000000000000000100000010000000110000100111011001 "
b1000000100000001100000100000001010000101111011011 #
b1000000100000001100000100000001010000101011011011 !
b100000001001000000000000000100000010000000110000100011011001 "
b1000000100000001100000100000001010000101011011011 #
b1000000100000001100000100000001010000101011011111 !
b1000000100000001100000100000001010000101011011111 #
b1000000100000001100000100000001010000101001011111 !
b100000001001000000000000000100000010000000110000100001011001 "
b1000000100000001100000100000001010000101001011111 #
b1000000100000001100000100000001010000101001011101 !
b100000001001000000000000000100000010000000110000100001011011 "
b1000000100000001100000100000001010000101001011101 #
b1000000100000001100000100000001010000101000011101 !
b1000000100000001100000100000001010000101000011101 #
b100000001001000000000000000100000010000000110000100000011011 "
b100000001001000000000000000100000010000000110000100000001011 "
b1000000100000001100000100000001010000101000001101 !
b1000000100000001100000100000001010000101000001101 #
b1000000100000001100000100000001010000101000001100 !
b100000001001000000000000000100000010000000110000100000001010 "
b1000000100000001100000100000001010000101000001100 #
0=
0>
1?
0A
0C
0D
0E
1F
0}
0~
1!!
0#!
0%!
0&!
0'!
1(!
0_!
1`!
0c!
0e!
0f!
0g!
0h!
0i!
1j!
06
#220000
b100000001001000000000000000100000010000000110000100000101010 "
b1000000100000001100000100000001010000101000101100 !
b1000000100000001100000100000001010000101000101100 #
b100000001001000000000000000100000010000000110000100000111010 "
b1000000100000001100000100000001010000101000111100 !
b1000000100000001100000100000001010000101000111100 #
b1000000100000001100000100000001010000101000111101 !
b100000001001000000000000000100000010000000110000100000111011 "
b1000000100000001100000100000001010000101000111101 #
1=
1A
1B
1}
1#!
1$!
1_!
1c!
1d!
16
#230000
b100000001001000000000000000100000010000000110000100000111111 "
b1000000100000001100000100000001010000101000111111 !
b100000001001000000000000000100000010000000110000100000111101 "
b1000000100000001100000100000001010000101000111111 #
b1000000100000001100000100000001010000101001111111 !
b1000000100000001100000100000001010000101001111111 #
b100000001001000000000000000100000010000000110000100001111101 "
b100000001001000000000000000100000010000000110000100001101101 "
b1000000100000001100000100000001010000101001101111 !
b1000000100000001100000100000001010000101001101111 #
b1000000100000001100000100000001010000101001101110 !
b100000001001000000000000000100000010000000110000100001101100 "
b1000000100000001100000100000001010000101001101110 #
0=
1>
0A
1C
0}
1~
0#!
1%!
0_!
0`!
1a!
0c!
1e!
06
